{
  "version": "2.0",
  "cameras": {
    "C0": {
      "name": "dvxplorer",
      "position": "left",
      "master": true,
      "resolution": [
        "640",
        "480"
      ],
      "principalPoint": [
        "320",
        "240"
      ],
      "focalLength": [
        "10",
        "12"
      ],
      "distortionCoefficients": [
        "0",
        "0.00999999978",
        "0.0199999996",
        "0.0299999993"
      ],
      "distortionModel": "radialTangential",
      "transformationToC0": [
        "1",
        "0",
        "0",
        "0",
        "0",
        "1",
        "0",
        "0",
        "0",
        "0",
        "1",
        "0",
        "0",
        "0",
        "0",
        "1"
      ],
      "metadata": {
        "patternShape": [
          "6",
          "6"
        ],
        "internalPatternShape": [
          "6",
          "6"
        ],
        "patternType": "maytag",
        "patternSize": "0.0500000007",
        "patternSpacing": "0.00999999978",
        "calibrationError": "1000.0",
        "calibrationTime": "today",
        "quality": "not great but not terrible",
        "comment": "no comment"
      }
    },
    "C1": {
      "name": "dvxplorer",
      "position": "right",
      "master": false,
      "resolution": [
        "640",
        "480"
      ],
      "principalPoint": [
        "320",
        "240"
      ],
      "focalLength": [
        "10",
        "12"
      ],
      "distortionCoefficients": [
        "0",
        "0.00999999978",
        "0.0199999996",
        "0.0299999993"
      ],
      "distortionModel": "radialTangential",
      "transformationToC0": [
        "1",
        "0",
        "0",
        "0",
        "0",
        "1",
        "0",
        "0",
        "0",
        "0",
        "1",
        "0",
        "0",
        "0",
        "0",
        "1"
      ]
    }
  },
  "imus": {
    "S0": {
      "name": "IMU_DVXplorer_DXA02137",
      "omegaMax": "0.100000001",
      "accMax": "0.200000003",
      "omegaOffsetAvg": [
        "1",
        "2",
        "3"
      ],
      "accOffsetAvg": [
        "4",
        "5",
        "6"
      ],
      "omegaOffsetVar": "0.300000012",
      "accOffsetVar": "0.400000006",
      "omegaNoiseDensity": "0.5",
      "accNoiseDensity": "0.600000024",
      "omegaNoiseRandomWalk": "0.699999988",
      "accNoiseRandomWalk": "0.800000012",
      "timeOffsetMicros": 900000,
      "transformationToC0": [
        "1",
        "0",
        "0",
        "0",
        "0",
        "1",
        "0",
        "0",
        "0",
        "0",
        "1",
        "0",
        "0",
        "0",
        "0",
        "1"
      ]
    },
    "S1": {
      "name": "IMU_DVXplorer_DXA02137",
      "omegaMax": "0.100000001",
      "accMax": "0.200000003",
      "omegaOffsetAvg": [
        "1",
        "2",
        "3"
      ],
      "accOffsetAvg": [
        "4",
        "5",
        "6"
      ],
      "omegaOffsetVar": "0.300000012",
      "accOffsetVar": "0.400000006",
      "omegaNoiseDensity": "0.5",
      "accNoiseDensity": "0.600000024",
      "omegaNoiseRandomWalk": "0.699999988",
      "accNoiseRandomWalk": "0.800000012",
      "timeOffsetMicros": 900000,
      "transformationToC0": [
        "1",
        "0",
        "0",
        "0",
        "0",
        "1",
        "0",
        "0",
        "0",
        "0",
        "1",
        "0",
        "0",
        "0",
        "0",
        "1"
      ],
      "metadata": {
        "calibrationTime": "just now",
        "comment": "nothing to say"
      }
    }
  },
  "stereo": {
    "C0_C1": {
      "leftCameraName": "dvxplorer",
      "rightCameraName": "dvxplorer",
      "fundamentalMatrix": [
        "1",
        "2",
        "3",
        "4",
        "5",
        "6",
        "7",
        "8",
        "9"
      ],
      "essentialMatrix": [
        "9",
        "8",
        "7",
        "6",
        "5",
        "4",
        "3",
        "2",
        "1"
      ],
      "metadata": {
        "epipolarError": "0.00999999978",
        "comment": "nothing to say"
      }
    }
  }
}
